﻿<?xml version="1.0" encoding="utf-8"?>
<svg version="1.1" xmlns:xlink="http://www.w3.org/1999/xlink" width="1035px" height="5px" xmlns="http://www.w3.org/2000/svg">
  <g transform="matrix(1 0 0 1 -59 -138 )">
    <path d="M 60 140  L 1092 140  " stroke-width="2" stroke="#797979" fill="none" />
  </g>
</svg>