﻿<?xml version="1.0" encoding="utf-8"?>
<svg version="1.1" xmlns:xlink="http://www.w3.org/1999/xlink" width="92px" height="66px" xmlns="http://www.w3.org/2000/svg">
  <g transform="matrix(1 0 0 1 -189 -410 )">
    <path d="M 235 475.392810481372  L 189.846385389602 443  L 235 410.607189518628  L 280.153614610398 443  L 235 475.392810481372  Z " fill-rule="nonzero" fill="#ffffff" stroke="none" />
    <path d="M 235 476  L 189 443  L 235 410  L 281 443  L 235 476  Z M 190.692770779204 443  L 235 474.785620962745  L 279.307229220796 443  L 235 411.214379037255  L 190.692770779204 443  Z " fill-rule="nonzero" fill="#797979" stroke="none" />
  </g>
</svg>