﻿<?xml version="1.0" encoding="utf-8"?>
<svg version="1.1" xmlns:xlink="http://www.w3.org/1999/xlink" width="32px" height="10px" preserveAspectRatio="xMinYMid meet" viewBox="567 534  32 8" xmlns="http://www.w3.org/2000/svg">
  <defs>
    <mask fill="white" id="clip8">
      <path d="M 548.858642578125 547  L 595.141357421875 547  L 595.141357421875 572  L 548.858642578125 572  Z M 548.858642578125 535  L 599 535  L 599 618  L 548.858642578125 618  Z " fill-rule="evenodd" />
    </mask>
  </defs>
  <path d="M 599 538  L 577 538  A 5 5 0 0 0 572 543 L 572 602  " stroke-width="2" stroke="#0099cc" fill="none" mask="url(#clip8)" />
  <path d="M 564.4 601  L 572 608  L 579.6 601  L 564.4 601  Z " fill-rule="nonzero" fill="#0099cc" stroke="none" mask="url(#clip8)" />
</svg>