﻿<?xml version="1.0" encoding="utf-8"?>
<svg version="1.1" xmlns:xlink="http://www.w3.org/1999/xlink" width="10px" height="75px" preserveAspectRatio="xMidYMin meet" viewBox="715 533  8 75" xmlns="http://www.w3.org/2000/svg">
  <defs>
    <mask fill="white" id="clip12">
      <path d="M 697.302734375 547  L 740.697265625 547  L 740.697265625 572  L 697.302734375 572  Z M 691 535  L 740.697265625 535  L 740.697265625 618  L 691 618  Z " fill-rule="evenodd" />
    </mask>
  </defs>
  <path d="M 691 538  L 714 538  A 5 5 0 0 1 719 543 L 719 602  " stroke-width="2" stroke="#0099cc" fill="none" mask="url(#clip12)" />
  <path d="M 711.4 601  L 719 608  L 726.6 601  L 711.4 601  Z " fill-rule="nonzero" fill="#0099cc" stroke="none" mask="url(#clip12)" />
</svg>