﻿<?xml version="1.0" encoding="utf-8"?>
<svg version="1.1" xmlns:xlink="http://www.w3.org/1999/xlink" width="20px" height="20px" preserveAspectRatio="xMinYMid meet" viewBox="636 380  20 18" xmlns="http://www.w3.org/2000/svg">
  <path d="M 646 372  L 646 388  " stroke-width="2" stroke="#0099cc" fill="none" />
  <path d="M 638.4 387  L 646 394  L 653.6 387  L 638.4 387  Z " fill-rule="nonzero" fill="#0099cc" stroke="none" />
</svg>