﻿<?xml version="1.0" encoding="utf-8"?>
<svg version="1.1" xmlns:xlink="http://www.w3.org/1999/xlink" width="20px" height="20px" preserveAspectRatio="xMinYMid meet" viewBox="709 817  20 18" xmlns="http://www.w3.org/2000/svg">
  <path d="M 719 810  L 719 825  " stroke-width="2" stroke="#0099cc" fill="none" />
  <path d="M 711.4 824  L 719 831  L 726.6 824  L 711.4 824  Z " fill-rule="nonzero" fill="#0099cc" stroke="none" />
</svg>