﻿<?xml version="1.0" encoding="utf-8"?>
<svg version="1.1" xmlns:xlink="http://www.w3.org/1999/xlink" width="20px" height="20px" preserveAspectRatio="xMinYMid meet" viewBox="1979 608  20 18" xmlns="http://www.w3.org/2000/svg">
  <defs>
    <mask fill="white" id="clip19">
      <path d="M 1967.302734375 561  L 2010.697265625 561  L 2010.697265625 586  L 1967.302734375 586  Z M 1961 550  L 2010.697265625 550  L 2010.697265625 632  L 1961 632  Z " fill-rule="evenodd" />
    </mask>
  </defs>
  <path d="M 1961 553  L 1984 553  A 5 5 0 0 1 1989 558 L 1989 616  " stroke-width="2" stroke="#0099cc" fill="none" mask="url(#clip19)" />
  <path d="M 1981.4 615  L 1989 622  L 1996.6 615  L 1981.4 615  Z " fill-rule="nonzero" fill="#0099cc" stroke="none" mask="url(#clip19)" />
</svg>