﻿<?xml version="1.0" encoding="utf-8"?>
<svg version="1.1" xmlns:xlink="http://www.w3.org/1999/xlink" width="20px" height="20px" preserveAspectRatio="xMinYMid meet" viewBox="1423 380  20 18" xmlns="http://www.w3.org/2000/svg">
  <path d="M 1453 327  L 1438 327  A 5 5 0 0 0 1433 332 L 1433 388  " stroke-width="2" stroke="#0099cc" fill="none" />
  <path d="M 1425.4 387  L 1433 394  L 1440.6 387  L 1425.4 387  Z " fill-rule="nonzero" fill="#0099cc" stroke="none" />
</svg>