﻿<?xml version="1.0" encoding="utf-8"?>
<svg version="1.1" xmlns:xlink="http://www.w3.org/1999/xlink" width="88px" height="10px" preserveAspectRatio="xMinYMid meet" viewBox="934 323  88 8" xmlns="http://www.w3.org/2000/svg">
  <path d="M 1022 327  L 944 327  A 5 5 0 0 0 939 332 L 939 388  " stroke-width="2" stroke="#0099cc" fill="none" />
  <path d="M 931.4 387  L 939 394  L 946.6 387  L 931.4 387  Z " fill-rule="nonzero" fill="#0099cc" stroke="none" />
</svg>