﻿<?xml version="1.0" encoding="utf-8"?>
<svg version="1.1" xmlns:xlink="http://www.w3.org/1999/xlink" width="91px" height="10px" preserveAspectRatio="xMinYMid meet" viewBox="150 596  91 8" xmlns="http://www.w3.org/2000/svg">
  <path d="M 155 588  L 155 595  A 5 5 0 0 0 160 600 L 231 600  A 5 5 0 0 1 236 605 L 236 612  " stroke-width="2" stroke="#0099cc" fill="none" />
  <path d="M 228.4 611  L 236 618  L 243.6 611  L 228.4 611  Z " fill-rule="nonzero" fill="#0099cc" stroke="none" />
</svg>