﻿<?xml version="1.0" encoding="utf-8"?>
<svg version="1.1" xmlns:xlink="http://www.w3.org/1999/xlink" width="14px" height="14px" xmlns="http://www.w3.org/2000/svg">
  <g transform="matrix(1 0 0 1 -570 -544 )">
    <path d="M 577 544  C 580.92 544  584 547.08  584 551  C 584 554.92  580.92 558  577 558  C 573.08 558  570 554.92  570 551  C 570 547.08  573.08 544  577 544  Z " fill-rule="nonzero" fill="#d6d6d6" stroke="none" />
  </g>
</svg>