﻿<?xml version="1.0" encoding="utf-8"?>
<svg version="1.1" xmlns:xlink="http://www.w3.org/1999/xlink" width="14px" height="14px" xmlns="http://www.w3.org/2000/svg">
  <g transform="matrix(1 0 0 1 -13 -67 )">
    <path d="M 20 67  C 23.92 67  27 70.08  27 74  C 27 77.92  23.92 81  20 81  C 16.08 81  13 77.92  13 74  C 13 70.08  16.08 67  20 67  Z " fill-rule="nonzero" fill="#2aab2b" stroke="none" />
  </g>
</svg>