﻿<?xml version="1.0" encoding="utf-8"?>
<svg version="1.1" xmlns:xlink="http://www.w3.org/1999/xlink" width="12px" height="12px" xmlns="http://www.w3.org/2000/svg">
  <g transform="matrix(1 0 0 1 -311 -122 )">
    <path d="M 2.82582521472478 11.8258252147248  L 0.166369055210994 0.166369055210986  L 11.8258252147248 2.82582521472478  L 2.82582521472478 11.8258252147248  Z " fill-rule="nonzero" fill="#1f8023" stroke="none" transform="matrix(1 0 0 1 311 122 )" />
  </g>
</svg>