﻿<?xml version="1.0" encoding="utf-8"?>
<svg version="1.1" xmlns:xlink="http://www.w3.org/1999/xlink" width="373px" height="10px" xmlns="http://www.w3.org/2000/svg">
  <g transform="matrix(1 0 0 1 -573 -858 )">
    <path d="M 574 859  L 945 859  L 945 867  L 574 867  L 574 859  Z " fill-rule="nonzero" fill="#2aab2b" stroke="none" />
  </g>
</svg>