﻿<?xml version="1.0" encoding="utf-8"?>
<svg version="1.1" xmlns:xlink="http://www.w3.org/1999/xlink" width="24px" height="24px" xmlns="http://www.w3.org/2000/svg">
  <g transform="matrix(1 0 0 1 -13 -283 )">
    <path d="M 12 24  C 18.6290322580645 24  24 18.6290322580645  24 12  C 24 5.37096774193549  18.6290322580645 0  12 0  C 5.37096774193549 0  0 5.37096774193549  0 12  C 0 18.6290322580645  5.37096774193549 24  12 24  Z M 22.4516129032258 12  C 22.4516129032258 17.7435483870968  17.8016129032258 22.4516129032258  12 22.4516129032258  C 6.25645161290322 22.4516129032258  1.54838709677421 17.8016129032258  1.54838709677421 12  C 1.54838709677421 6.25645161290322  6.19838709677418 1.54838709677421  12 1.54838709677421  C 17.7435483870968 1.54838709677421  22.4516129032258 6.19838709677418  22.4516129032258 12  Z M 7.80483870967743 12.4161290322581  C 7.58225806451611 12.1838709677419  7.58225806451611 11.8161290322581  7.80967741935484 11.5887096774194  L 13.3790322580645 6.0241935483871  C 13.6064516129032 5.7967741935484  13.9741935483871 5.7967741935484  14.2016129032258 6.0241935483871  L 14.5451612903226 6.36774193548388  C 14.7725806451613 6.59516129032258  14.7725806451613 6.96290322580646  14.5451612903226 7.19032258064516  L 9.72580645161293 12  L 14.5403225806452 16.8145161290323  C 14.7677419354839 17.041935483871  14.7677419354839 17.4096774193548  14.5403225806452 17.6370967741935  L 14.1967741935484 17.9806451612903  C 13.9693548387097 18.208064516129  13.6016129032258 18.208064516129  13.3741935483871 17.9806451612903  L 7.80483870967743 12.4161290322581  Z " fill-rule="nonzero" fill="#ffffff" stroke="none" transform="matrix(1 0 0 1 13 283 )" />
  </g>
</svg>