﻿<?xml version="1.0" encoding="utf-8"?>
<svg version="1.1" xmlns:xlink="http://www.w3.org/1999/xlink" width="291px" height="2px" xmlns="http://www.w3.org/2000/svg">
  <g transform="matrix(1 0 0 1 -21 -62 )">
    <path d="M 21 62.5  L 311 62.5  " stroke-width="1" stroke="#b2b2b2" fill="none" />
  </g>
</svg>