﻿<?xml version="1.0" encoding="utf-8"?>
<svg version="1.1" xmlns:xlink="http://www.w3.org/1999/xlink" width="18px" height="18px" xmlns="http://www.w3.org/2000/svg">
  <g transform="matrix(1 0 0 1 -13 -13 )">
    <path d="M 18 8.25  C 18 8.0428125  17.8321875 7.875  17.625 7.875  L 10.125 7.875  L 10.125 0.375  C 10.125 0.167812499999997  9.9571875 0  9.75 0  L 8.25 0  C 8.0428125 0  7.875 0.167812499999997  7.875 0.375  L 7.875 7.875  L 0.375 7.875  C 0.167812499999997 7.875  0 8.0428125  0 8.25  L 0 9.75  C 0 9.9571875  0.167812499999997 10.125  0.375 10.125  L 7.875 10.125  L 7.875 17.625  C 7.875 17.8321875  8.0428125 18  8.25 18  L 9.75 18  C 9.9571875 18  10.125 17.8321875  10.125 17.625  L 10.125 10.125  L 17.625 10.125  C 17.8321875 10.125  18 9.9571875  18 9.75  L 18 8.25  Z " fill-rule="nonzero" fill="#7f7f7f" stroke="none" transform="matrix(1 0 0 1 13 13 )" />
  </g>
</svg>