﻿<?xml version="1.0" encoding="utf-8"?>
<svg version="1.1" xmlns:xlink="http://www.w3.org/1999/xlink" width="18px" height="18px" xmlns="http://www.w3.org/2000/svg">
  <g transform="matrix(1 0 0 1 -13 -13 )">
    <path d="M 17.8678125 15.9586875  L 10.909125 9  L 16.678125 3.23099999999999  L 17.8678125 2.04131249999999  C 18.0433125 1.8658125  18.0433125 1.58062500000001  17.8678125 1.40512499999998  L 16.594875 0.132187499999986  C 16.419375 -0.043312499999999  16.1341875 -0.043312499999999  15.9586875 0.132187499999986  L 9 7.090875  L 5.92344890675277 4.01407521617859  L 2.04131249999999 0.131625  C 1.8658125 -0.0438749999999857  1.58062500000001 -0.0438749999999857  1.40512499999998 0.131625  L 0.131625 1.4045625  C -0.0438749999999857 1.58006249999998  -0.0438749999999857 1.86525000000002  0.131625 2.04075  L 7.090875 9  L 0.131625 15.9586875  C -0.0438749999999857 16.1341875  -0.0438749999999857 16.419375  0.131625 16.594875  L 1.4045625 17.8678125  C 1.58006249999998 18.0433125  1.86525000000002 18.0433125  2.04075 17.8678125  L 9 10.909125  L 14.769 16.678125  L 15.9586875 17.8678125  C 16.1341875 18.0433125  16.419375 18.0433125  16.594875 17.8678125  L 17.8678125 16.594875  C 18.0433125 16.419375  18.0433125 16.1341875  17.8678125 15.9586875  Z " fill-rule="nonzero" fill="#ffffff" stroke="none" transform="matrix(1 0 0 1 13 13 )" />
  </g>
</svg>