﻿<?xml version="1.0" encoding="utf-8"?>
<svg version="1.1" xmlns:xlink="http://www.w3.org/1999/xlink" width="218px" height="41px" xmlns="http://www.w3.org/2000/svg">
  <defs>
    <filter x="603px" y="242px" width="218px" height="41px" filterUnits="userSpaceOnUse" id="filter68">
      <feOffset dx="5" dy="5" in="SourceAlpha" result="shadowOffsetInner" />
      <feGaussianBlur stdDeviation="2.5" in="shadowOffsetInner" result="shadowGaussian" />
      <feComposite in2="shadowGaussian" operator="atop" in="SourceAlpha" result="shadowComposite" />
      <feColorMatrix type="matrix" values="0 0 0 0 0  0 0 0 0 0  0 0 0 0 0  0 0 0 0.101960784313725 0  " in="shadowComposite" />
    </filter>
    <g id="widget69">
      <path d="M 603 242  L 811 242  L 811 273  L 603 273  L 603 242  Z " fill-rule="nonzero" fill="#ffff80" stroke="none" fill-opacity="0.972549019607843" />
    </g>
  </defs>
  <g transform="matrix(1 0 0 1 -603 -242 )">
    <use xlink:href="#widget69" filter="url(#filter68)" />
    <use xlink:href="#widget69" />
  </g>
</svg>