﻿<?xml version="1.0" encoding="utf-8"?>
<svg version="1.1" xmlns:xlink="http://www.w3.org/1999/xlink" width="2px" height="241px" xmlns="http://www.w3.org/2000/svg">
  <g transform="matrix(1 0 0 1 0 88 )">
    <path d="M 0.5 -88  L 0.5 152  " stroke-width="1" stroke="#d7d7d7" fill="none" />
  </g>
</svg>