﻿<?xml version="1.0" encoding="utf-8"?>
<svg version="1.1" xmlns:xlink="http://www.w3.org/1999/xlink" width="8px" height="12px" xmlns="http://www.w3.org/2000/svg">
  <g transform="matrix(1 0 0 1 -880 -208 )">
    <path d="M 7.72916326530611 8.78571428571428  C 7.87261224489795 8.66019642857142  7.87261224489795 8.45667857142857  7.72913265306122 8.33116071428572  L 7.51270408163264 8.14175892857143  C 7.36925510204082 8.01624107142857  7.13666326530612 8.01624107142857  6.9931836734694 8.14175892857143  L 4.43877551020409 10.3898303571429  L 4.43877551020409 0.321428571428575  C 4.43877551020409 0.143919642857142  4.27429591836735 0  4.07142857142857 0  L 3.76530612244897 0  C 3.56243877551019 0  3.39795918367347 0.143919642857142  3.39795918367347 0.321428571428575  L 3.39795918367347 10.3898303571429  L 0.843551020408175 8.14175892857143  C 0.700102040816327 8.01624107142857  0.467510204081642 8.01624107142857  0.324030612244899 8.14175892857143  L 0.107602040816321 8.33116071428572  C -0.0358469387755105 8.45667857142857  -0.0358469387755105 8.66019642857142  0.107602040816321 8.78571428571428  L 3.65862244897959 11.9058482142857  C 3.80207142857142 12.0313660714286  4.03466326530612 12.0313660714286  4.17814285714285 11.9058482142857  L 7.72916326530611 8.78571428571428  Z " fill-rule="nonzero" fill="#000000" stroke="none" transform="matrix(1 0 0 1 880 208 )" />
  </g>
</svg>