﻿<?xml version="1.0" encoding="utf-8"?>
<svg version="1.1" xmlns:xlink="http://www.w3.org/1999/xlink" width="34px" height="10px" preserveAspectRatio="xMinYMid meet" viewBox="2814 343  34 8" xmlns="http://www.w3.org/2000/svg">
  <path d="M 2814 347  L 2837 347  " stroke-width="2" stroke="#000000" fill="none" />
  <path d="M 2836 354.6  L 2843 347  L 2836 339.4  L 2836 354.6  Z " fill-rule="nonzero" fill="#000000" stroke="none" />
</svg>