﻿<?xml version="1.0" encoding="utf-8"?>
<svg version="1.1" xmlns:xlink="http://www.w3.org/1999/xlink" width="718px" height="10px" preserveAspectRatio="xMinYMid meet" viewBox="2125 533  718 8" xmlns="http://www.w3.org/2000/svg">
  <path d="M 2130 243  L 2130 532  A 5 5 0 0 0 2135 537 L 2837 537  " stroke-width="2" stroke="#000000" fill="none" />
  <path d="M 2836 544.6  L 2843 537  L 2836 529.4  L 2836 544.6  Z " fill-rule="nonzero" fill="#000000" stroke="none" />
</svg>