﻿<?xml version="1.0" encoding="utf-8"?>
<svg version="1.1" xmlns:xlink="http://www.w3.org/1999/xlink" width="120px" height="10px" preserveAspectRatio="xMinYMid meet" viewBox="3083 533  120 8" xmlns="http://www.w3.org/2000/svg">
  <path d="M 3083 537  L 3193 537  A 5 5 0 0 0 3198 532 L 3198 238  " stroke-width="2" stroke="#000000" fill="none" />
  <path d="M 3205.6 239  L 3198 232  L 3190.4 239  L 3205.6 239  Z " fill-rule="nonzero" fill="#000000" stroke="none" />
</svg>