﻿<?xml version="1.0" encoding="utf-8"?>
<svg version="1.1" xmlns:xlink="http://www.w3.org/1999/xlink" width="20px" height="20px" preserveAspectRatio="xMinYMid meet" viewBox="2268 148  20 18" xmlns="http://www.w3.org/2000/svg">
  <path d="M 2259 157  L 2277 157  " stroke-width="2" stroke="#000000" fill="none" />
  <path d="M 2276 164.6  L 2283 157  L 2276 149.4  L 2276 164.6  Z " fill-rule="nonzero" fill="#000000" stroke="none" />
</svg>