﻿<?xml version="1.0" encoding="utf-8"?>
<svg version="1.1" xmlns:xlink="http://www.w3.org/1999/xlink" width="45px" height="10px" preserveAspectRatio="xMinYMid meet" viewBox="760 153  45 8" xmlns="http://www.w3.org/2000/svg">
  <path d="M 760 157  L 794 157  " stroke-width="2" stroke="#000000" fill="none" />
  <path d="M 793 164.6  L 800 157  L 793 149.4  L 793 164.6  Z " fill-rule="nonzero" fill="#000000" stroke="none" />
</svg>