﻿<?xml version="1.0" encoding="utf-8"?>
<svg version="1.1" xmlns:xlink="http://www.w3.org/1999/xlink" width="20px" height="20px" preserveAspectRatio="xMinYMid meet" viewBox="1840 228  20 18" xmlns="http://www.w3.org/2000/svg">
  <path d="M 1850 272  L 1850 238  " stroke-width="2" stroke="#000000" fill="none" />
  <path d="M 1857.6 239  L 1850 232  L 1842.4 239  L 1857.6 239  Z " fill-rule="nonzero" fill="#000000" stroke="none" />
</svg>