﻿<?xml version="1.0" encoding="utf-8"?>
<svg version="1.1" xmlns:xlink="http://www.w3.org/1999/xlink" width="312px" height="458px" xmlns="http://www.w3.org/2000/svg">
  <g transform="matrix(1 0 0 1 -1762 -387 )">
    <path d="M 1763 388  L 2073 388  L 2073 844  L 1763 844  L 1763 388  Z " fill-rule="nonzero" fill="#ffffff" stroke="none" />
    <path d="M 1762.5 387.5  L 2073.5 387.5  L 2073.5 844.5  L 1762.5 844.5  L 1762.5 387.5  Z " stroke-width="1" stroke-dasharray="9,4" stroke="#797979" fill="none" stroke-dashoffset="0.5" />
  </g>
</svg>