﻿<?xml version="1.0" encoding="utf-8"?>
<svg version="1.1" xmlns:xlink="http://www.w3.org/1999/xlink" width="20px" height="20px" preserveAspectRatio="xMinYMid meet" viewBox="635 491  20 18" xmlns="http://www.w3.org/2000/svg">
  <path d="M 646 484  L 646 497.5  A 0.5 0.5 0 0 1 645.5 498 A 0.5 0.5 0 0 0 645 498.5 L 645 499  " stroke-width="2" stroke="#0099cc" fill="none" />
  <path d="M 637.4 498  L 645 505  L 652.6 498  L 637.4 498  Z " fill-rule="nonzero" fill="#0099cc" stroke="none" />
</svg>