﻿<?xml version="1.0" encoding="utf-8"?>
<svg version="1.1" xmlns:xlink="http://www.w3.org/1999/xlink" width="20px" height="20px" preserveAspectRatio="xMinYMid meet" viewBox="1832 608  20 18" xmlns="http://www.w3.org/2000/svg">
  <defs>
    <mask fill="white" id="clip88">
      <path d="M 1818.85864257813 562  L 1865.14135742188 562  L 1865.14135742188 587  L 1818.85864257813 587  Z M 1818.85864257813 550  L 1869 550  L 1869 632  L 1818.85864257813 632  Z " fill-rule="evenodd" />
    </mask>
  </defs>
  <path d="M 1869 553  L 1847 553  A 5 5 0 0 0 1842 558 L 1842 616  " stroke-width="2" stroke="#0099cc" fill="none" mask="url(#clip88)" />
  <path d="M 1834.4 615  L 1842 622  L 1849.6 615  L 1834.4 615  Z " fill-rule="nonzero" fill="#0099cc" stroke="none" mask="url(#clip88)" />
</svg>