﻿<?xml version="1.0" encoding="utf-8"?>
<svg version="1.1" xmlns:xlink="http://www.w3.org/1999/xlink" width="10px" height="27px" preserveAspectRatio="xMidYMin meet" viewBox="1985 712  8 27" xmlns="http://www.w3.org/2000/svg">
  <path d="M 1989 712  L 1989 728  " stroke-width="2" stroke="#0099cc" fill="none" />
  <path d="M 1981.4 727  L 1989 734  L 1996.6 727  L 1981.4 727  Z " fill-rule="nonzero" fill="#0099cc" stroke="none" />
</svg>