﻿<?xml version="1.0" encoding="utf-8"?>
<svg version="1.1" xmlns:xlink="http://www.w3.org/1999/xlink" width="20px" height="20px" preserveAspectRatio="xMinYMid meet" viewBox="1905 506  20 18" xmlns="http://www.w3.org/2000/svg">
  <path d="M 1915 498  L 1915 514  " stroke-width="2" stroke="#0099cc" fill="none" />
  <path d="M 1907.4 513  L 1915 520  L 1922.6 513  L 1907.4 513  Z " fill-rule="nonzero" fill="#0099cc" stroke="none" />
</svg>