﻿<?xml version="1.0" encoding="utf-8"?>
<svg version="1.1" xmlns:xlink="http://www.w3.org/1999/xlink" width="117px" height="52px" xmlns="http://www.w3.org/2000/svg">
  <defs>
    <filter x="719px" y="217px" width="117px" height="52px" filterUnits="userSpaceOnUse" id="filter92">
      <feOffset dx="5" dy="5" in="SourceAlpha" result="shadowOffsetInner" />
      <feGaussianBlur stdDeviation="2.5" in="shadowOffsetInner" result="shadowGaussian" />
      <feComposite in2="shadowGaussian" operator="atop" in="SourceAlpha" result="shadowComposite" />
      <feColorMatrix type="matrix" values="0 0 0 0 0  0 0 0 0 0  0 0 0 0 0  0 0 0 0.349019607843137 0  " in="shadowComposite" />
    </filter>
    <g id="widget93">
      <path d="M 720 218  L 825 218  L 825 258  L 720 258  L 720 218  Z " fill-rule="nonzero" fill="#ffff80" stroke="none" />
    </g>
  </defs>
  <g transform="matrix(1 0 0 1 -719 -217 )">
    <use xlink:href="#widget93" filter="url(#filter92)" />
    <use xlink:href="#widget93" />
  </g>
</svg>