﻿<?xml version="1.0" encoding="utf-8"?>
<svg version="1.1" xmlns:xlink="http://www.w3.org/1999/xlink" width="20px" height="20px" preserveAspectRatio="xMinYMid meet" viewBox="1075 268  20 18" xmlns="http://www.w3.org/2000/svg">
  <path d="M 1085 260  L 1085 276  " stroke-width="2" stroke="#0099cc" fill="none" />
  <path d="M 1077.4 275  L 1085 282  L 1092.6 275  L 1077.4 275  Z " fill-rule="nonzero" fill="#0099cc" stroke="none" />
</svg>