﻿<?xml version="1.0" encoding="utf-8"?>
<svg version="1.1" xmlns:xlink="http://www.w3.org/1999/xlink" width="88px" height="10px" preserveAspectRatio="xMinYMid meet" viewBox="1148 323  88 8" xmlns="http://www.w3.org/2000/svg">
  <path d="M 1148 327  L 1226 327  A 5 5 0 0 1 1231 332 L 1231 388  " stroke-width="2" stroke="#0099cc" fill="none" />
  <path d="M 1223.4 387  L 1231 394  L 1238.6 387  L 1223.4 387  Z " fill-rule="nonzero" fill="#0099cc" stroke="none" />
</svg>