﻿<?xml version="1.0" encoding="utf-8"?>
<svg version="1.1" xmlns:xlink="http://www.w3.org/1999/xlink" width="149px" height="63px" xmlns="http://www.w3.org/2000/svg">
  <defs>
    <filter x="1093px" y="352px" width="149px" height="63px" filterUnits="userSpaceOnUse" id="filter30">
      <feOffset dx="5" dy="5" in="SourceAlpha" result="shadowOffsetInner" />
      <feGaussianBlur stdDeviation="2.5" in="shadowOffsetInner" result="shadowGaussian" />
      <feComposite in2="shadowGaussian" operator="atop" in="SourceAlpha" result="shadowComposite" />
      <feColorMatrix type="matrix" values="0 0 0 0 0  0 0 0 0 0  0 0 0 0 0  0 0 0 0.349019607843137 0  " in="shadowComposite" />
    </filter>
    <g id="widget31">
      <path d="M 1094 353  L 1231 353  L 1231 404  L 1094 404  L 1094 353  Z " fill-rule="nonzero" fill="#ffff80" stroke="none" />
    </g>
  </defs>
  <g transform="matrix(1 0 0 1 -1093 -352 )">
    <use xlink:href="#widget31" filter="url(#filter30)" />
    <use xlink:href="#widget31" />
  </g>
</svg>