﻿<?xml version="1.0" encoding="utf-8"?>
<svg version="1.1" xmlns:xlink="http://www.w3.org/1999/xlink" width="500px" height="45px" xmlns="http://www.w3.org/2000/svg">
  <g>
    <path d="M 1 1  L 499 1  L 499 44  L 1 44  L 1 1  Z " fill-rule="nonzero" fill="#ffffff" stroke="none" />
    <path d="M 0.5 0.5  L 499.5 0.5  L 499.5 44.5  L 0.5 44.5  L 0.5 0.5  Z " stroke-width="1" stroke="#000000" fill="none" stroke-opacity="0.874509803921569" />
  </g>
</svg>