﻿<?xml version="1.0" encoding="utf-8"?>
<svg version="1.1" xmlns:xlink="http://www.w3.org/1999/xlink" width="24px" height="24px" xmlns="http://www.w3.org/2000/svg">
  <g>
    <path d="M 12 0  C 12.828421875 0  13.5 0.671578125  13.5 1.5  C 13.5 2.328421875  12.828421875 3  12 3  C 11.171578125 3  10.5 2.328421875  10.5 1.5  C 10.5 0.671578125  11.171578125 0  12 0  Z M 13.5 22.5  C 13.5 21.671578125  12.828421875 21  12 21  C 11.171578125 21  10.5 21.671578125  10.5 22.5  C 10.5 23.328421875  11.171578125 24  12 24  C 12.828421875 24  13.5 23.328421875  13.5 22.5  Z M 22.5 13.5  C 23.328421875 13.5  24 12.828421875  24 12  C 24 11.171578125  23.328421875 10.5  22.5 10.5  C 21.671578125 10.5  21 11.171578125  21 12  C 21 12.828421875  21.671578125 13.5  22.5 13.5  Z M 1.5 13.5  C 2.328421875 13.5  3 12.828421875  3 12  C 3 11.171578125  2.328421875 10.5  1.5 10.5  C 0.671578124999996 10.5  0 11.171578125  0 12  C 0 12.828421875  0.671578125000003 13.5  1.5 13.5  Z M 6.075375 19.424625  C 6.075375 18.596203125  5.403796875 17.924625  4.575375 17.924625  C 3.746953125 17.924625  3.075375 18.596203125  3.075375 19.424625  C 3.075375 20.253046875  3.746953125 20.924625  4.575375 20.924625  C 5.403796875 20.924625  6.075375 20.253046875  6.075375 19.424625  Z M 20.924625 19.424625  C 20.924625 18.596203125  20.253046875 17.924625  19.424625 17.924625  C 18.596203125 17.924625  17.924625 18.596203125  17.924625 19.424625  C 17.924625 20.253046875  18.596203125 20.924625  19.424625 20.924625  C 20.253046875 20.924625  20.924625 20.253046875  20.924625 19.424625  Z M 6.075375 4.575375  C 6.075375 3.746953125  5.403796875 3.075375  4.575375 3.075375  C 3.746953125 3.075375  3.075375 3.746953125  3.075375 4.575375  C 3.075375 5.403796875  3.746953125 6.075375  4.575375 6.075375  C 5.403796875 6.075375  6.075375 5.403796875  6.075375 4.575375  Z " fill-rule="nonzero" fill="#000000" stroke="none" />
  </g>
</svg>