﻿<?xml version="1.0" encoding="utf-8"?>
<svg version="1.1" xmlns:xlink="http://www.w3.org/1999/xlink" width="12px" height="12px" viewBox="60 589  12 12" xmlns="http://www.w3.org/2000/svg">
  <path d="M 60.5 589.5  L 71.5 589.5  L 71.5 600.5  L 60.5 600.5  L 60.5 589.5  Z " fill-rule="nonzero" fill="#f0f0f0" stroke="none" />
  <path d="M 60.5 589.5  L 71.5 589.5  L 71.5 600.5  L 60.5 600.5  L 60.5 589.5  Z " stroke-width="1" stroke="#d7d7d7" fill="none" />
</svg>