﻿<?xml version="1.0" encoding="utf-8"?>
<svg version="1.1" xmlns:xlink="http://www.w3.org/1999/xlink" width="22px" height="22px" xmlns="http://www.w3.org/2000/svg">
  <g transform="matrix(1 0 0 1 0 -1417 )">
    <path d="M 19.558 0  L 2.442 0  C 1.1 0  0 1.1  0 2.442  L 0 19.558  C 0 20.9  1.1 22  2.442 22  L 19.558 22  C 20.9 22  22 20.9  22 19.558  L 22 2.442  C 22 1.1  20.9 0  19.558 0  Z M 2.2 2.2  L 19.8 2.2  L 19.8 19.8  L 2.2 19.8  L 2.2 2.2  Z " fill-rule="nonzero" fill="#959595" stroke="none" transform="matrix(1 0 0 1 0 1417 )" />
  </g>
</svg>