﻿<?xml version="1.0" encoding="utf-8"?>
<svg version="1.1" xmlns:xlink="http://www.w3.org/1999/xlink" width="14px" height="8px" xmlns="http://www.w3.org/2000/svg">
  <g transform="matrix(1 0 0 1 -659 -382 )">
    <path d="M 659 390  L 666 382  L 673 390  L 659 390  Z " fill-rule="nonzero" fill="#000000" stroke="none" />
  </g>
</svg>