﻿<?xml version="1.0" encoding="utf-8"?>
<svg version="1.1" xmlns:xlink="http://www.w3.org/1999/xlink" width="10px" height="10px" xmlns="http://www.w3.org/2000/svg">
  <g transform="matrix(1 0 0 1 -17 -346 )">
    <path d="M 22 346  C 24.8 346  27 348.2  27 351  C 27 353.8  24.8 356  22 356  C 19.2 356  17 353.8  17 351  C 17 348.2  19.2 346  22 346  Z " fill-rule="nonzero" fill="#000000" stroke="none" />
  </g>
</svg>