﻿<?xml version="1.0" encoding="utf-8"?>
<svg version="1.1" xmlns:xlink="http://www.w3.org/1999/xlink" width="62px" height="15px" xmlns="http://www.w3.org/2000/svg">
  <g transform="matrix(1 0 0 1 -10 -250 )">
    <path d="M 0 15  L 0 0  L 30.2954545454545 0  L 62 0  L 62 15  L 22.5454545454545 15  L 0 15  Z " fill-rule="nonzero" fill="#ffffff" stroke="none" transform="matrix(1 0 0 1 10 250 )" />
  </g>
</svg>