﻿<?xml version="1.0" encoding="utf-8"?>
<svg version="1.1" xmlns:xlink="http://www.w3.org/1999/xlink" width="88px" height="88px" xmlns="http://www.w3.org/2000/svg">
  <defs>
    <filter x="-7px" y="-4px" width="88px" height="88px" filterUnits="userSpaceOnUse" id="filter36">
      <feOffset dx="0" dy="3" in="SourceAlpha" result="shadowOffsetInner" />
      <feGaussianBlur stdDeviation="3.5" in="shadowOffsetInner" result="shadowGaussian" />
      <feComposite in2="shadowGaussian" operator="atop" in="SourceAlpha" result="shadowComposite" />
      <feColorMatrix type="matrix" values="0 0 0 0 0  0 0 0 0 0  0 0 0 0 0  0 0 0 0.349019607843137 0  " in="shadowComposite" />
    </filter>
    <g id="widget37">
      <path d="M 1 2  A 1 1 0 0 1 2 1 L 72 1  A 1 1 0 0 1 73 2 L 73 72  A 1 1 0 0 1 72 73 L 2 73  A 1 1 0 0 1 1 72 L 1 2  Z " fill-rule="nonzero" fill="#ffffff" stroke="none" />
      <path d="M 0.5 2  A 1.5 1.5 0 0 1 2 0.5 L 72 0.5  A 1.5 1.5 0 0 1 73.5 2 L 73.5 72  A 1.5 1.5 0 0 1 72 73.5 L 2 73.5  A 1.5 1.5 0 0 1 0.5 72 L 0.5 2  Z " stroke-width="1" stroke="#000000" fill="none" stroke-opacity="0.6" />
    </g>
  </defs>
  <g transform="matrix(1 0 0 1 7 4 )">
    <use xlink:href="#widget37" filter="url(#filter36)" />
    <use xlink:href="#widget37" />
  </g>
</svg>