﻿<?xml version="1.0" encoding="utf-8"?>
<svg version="1.1" xmlns:xlink="http://www.w3.org/1999/xlink" width="22px" height="22px" viewBox="31 120  22 22" xmlns="http://www.w3.org/2000/svg">
  <path d="M 42 121  C 47.6 121  52 125.4  52 131  C 52 136.6  47.6 141  42 141  C 36.4 141  32 136.6  32 131  C 32 125.4  36.4 121  42 121  Z " fill-rule="nonzero" fill="#ffffff" stroke="none" />
  <path d="M 42 121  C 47.6 121  52 125.4  52 131  C 52 136.6  47.6 141  42 141  C 36.4 141  32 136.6  32 131  C 32 125.4  36.4 121  42 121  Z " stroke-width="2" stroke="#797979" fill="none" />
</svg>