﻿<?xml version="1.0" encoding="utf-8"?>
<svg version="1.1" xmlns:xlink="http://www.w3.org/1999/xlink" width="24px" height="21px" xmlns="http://www.w3.org/2000/svg">
  <g>
    <path d="M 2.25 1.5  L 21.75 1.5  C 22.163578125 1.5  22.5 1.83646875  22.5 2.25  L 22.5 18.75  C 22.5 19.16353125  22.163578125 19.5  21.75 19.5  L 2.25 19.5  C 1.836421875 19.5  1.5 19.16353125  1.5 18.75  L 1.5 2.25  C 1.5 1.83646875  1.836421875 1.5  2.25 1.5  Z M 24 2.25  C 24 1.00734375  22.99265625 0  21.75 0  L 2.25 0  C 1.00734375 0  0 1.00734375  0 2.25  L 0 18.75  C 0 19.99265625  1.00734375 21  2.25 21  L 21.75 21  C 22.99265625 21  24 19.99265625  24 18.75  L 24 2.25  Z M 7.5 6  C 7.5 5.171578125  6.828421875 4.5  6 4.5  C 5.171578125 4.5  4.5 5.171578125  4.5 6  C 4.5 6.828421875  5.171578125 7.5  6 7.5  C 6.828421875 7.5  7.5 6.828421875  7.5 6  Z M 7.5 10.5  C 7.5 9.671578125  6.828421875 9  6 9  C 5.171578125 9  4.5 9.671578125  4.5 10.5  C 4.5 11.328421875  5.171578125 12  6 12  C 6.828421875 12  7.5 11.328421875  7.5 10.5  Z M 7.5 15  C 7.5 14.171578125  6.828421875 13.5  6 13.5  C 5.171578125 13.5  4.5 14.171578125  4.5 15  C 4.5 15.828421875  5.171578125 16.5  6 16.5  C 6.828421875 16.5  7.5 15.828421875  7.5 15  Z M 19.21875 6.84375  C 19.3740800858899 6.84375  19.5 6.71783008588991  19.5 6.5625  L 19.5 5.4375  C 19.5 5.28216991411009  19.3740800858899 5.15625  19.21875 5.15625  L 9.28125 5.15625  C 9.12591991411009 5.15625  9 5.28216991411009  9 5.4375  L 9 6.5625  C 9 6.71783008588991  9.12591991411009 6.84375  9.28125 6.84375  L 19.21875 6.84375  Z M 19.21875 11.34375  C 19.3740800858899 11.34375  19.5 11.2178300858899  19.5 11.0625  L 19.5 9.9375  C 19.5 9.78216991411009  19.3740800858899 9.65625  19.21875 9.65625  L 9.28125 9.65625  C 9.12591991411009 9.65625  9 9.78216991411009  9 9.9375  L 9 11.0625  C 9 11.2178300858899  9.12591991411009 11.34375  9.28125 11.34375  L 19.21875 11.34375  Z M 19.21875 15.84375  C 19.3740800858899 15.84375  19.5 15.7178300858899  19.5 15.5625  L 19.5 14.4375  C 19.5 14.2821699141101  19.3740800858899 14.15625  19.21875 14.15625  L 9.28125 14.15625  C 9.12591991411009 14.15625  9 14.2821699141101  9 14.4375  L 9 15.5625  C 9 15.7178300858899  9.12591991411009 15.84375  9.28125 15.84375  L 19.21875 15.84375  Z " fill-rule="nonzero" fill="#007ad3" stroke="none" />
  </g>
</svg>