﻿<?xml version="1.0" encoding="utf-8"?>
<svg version="1.1" xmlns:xlink="http://www.w3.org/1999/xlink" width="108px" height="14px" xmlns="http://www.w3.org/2000/svg">
  <g transform="matrix(1 0 0 1 -390 0 )">
    <path d="M 0 14  L 0 0  L 42.9397590361446 0  L 108 0  L 108 14  L 20.8192771084337 14  L 0 14  Z " fill-rule="nonzero" fill="#000000" stroke="none" transform="matrix(1 0 0 1 390 0 )" />
  </g>
</svg>