﻿<?xml version="1.0" encoding="utf-8"?>
<svg version="1.1" xmlns:xlink="http://www.w3.org/1999/xlink" width="10px" height="6px" xmlns="http://www.w3.org/2000/svg">
  <g transform="matrix(1 0 0 1 -128 -22 )">
    <path d="M 128 28  L 133 22  L 138 28  L 128 28  Z " fill-rule="nonzero" fill="#000000" stroke="none" />
  </g>
</svg>