﻿<?xml version="1.0" encoding="utf-8"?>
<svg version="1.1" xmlns:xlink="http://www.w3.org/1999/xlink" width="44px" height="44px" xmlns="http://www.w3.org/2000/svg">
  <g>
    <path d="M 22 0  C 34.32 0  44 9.68  44 22  C 44 34.32  34.32 44  22 44  C 9.68 44  0 34.32  0 22  C 0 9.68  9.68 0  22 0  Z " fill-rule="nonzero" fill="#0080d7" stroke="none" fill-opacity="0.819607843137255" />
  </g>
</svg>