﻿<?xml version="1.0" encoding="utf-8"?>
<svg version="1.1" xmlns:xlink="http://www.w3.org/1999/xlink" width="12px" height="12px" viewBox="453 705  12 12" xmlns="http://www.w3.org/2000/svg">
  <path d="M 453.5 705.5  L 464.5 705.5  L 464.5 716.5  L 453.5 716.5  L 453.5 705.5  Z " fill-rule="nonzero" fill="#f0f0f0" stroke="none" />
  <path d="M 453.5 705.5  L 464.5 705.5  L 464.5 716.5  L 453.5 716.5  L 453.5 705.5  Z " stroke-width="1" stroke="#d7d7d7" fill="none" />
</svg>