﻿<?xml version="1.0" encoding="utf-8"?>
<svg version="1.1" xmlns:xlink="http://www.w3.org/1999/xlink" width="220px" height="63px" xmlns="http://www.w3.org/2000/svg">
  <g>
    <path d="M 1 2  A 1 1 0 0 1 2 1 L 218 1  A 1 1 0 0 1 219 2 L 219 61  A 1 1 0 0 1 218 62 L 2 62  A 1 1 0 0 1 1 61 L 1 2  Z " fill-rule="nonzero" fill="#ffffff" stroke="none" fill-opacity="0" />
    <path d="M 0.5 2  A 1.5 1.5 0 0 1 2 0.5 L 218 0.5  A 1.5 1.5 0 0 1 219.5 2 L 219.5 61  A 1.5 1.5 0 0 1 218 62.5 L 2 62.5  A 1.5 1.5 0 0 1 0.5 61 L 0.5 2  Z " stroke-width="1" stroke-dasharray="3,1" stroke="#000000" fill="none" stroke-opacity="0.6" stroke-dashoffset="0.5" />
  </g>
</svg>