﻿<?xml version="1.0" encoding="utf-8"?>
<svg version="1.1" xmlns:xlink="http://www.w3.org/1999/xlink" width="22px" height="22px" viewBox="31 66  22 22" xmlns="http://www.w3.org/2000/svg">
  <path d="M 42 67  C 47.6 67  52 71.4  52 77  C 52 82.6  47.6 87  42 87  C 36.4 87  32 82.6  32 77  C 32 71.4  36.4 67  42 67  Z " fill-rule="nonzero" fill="#ffffff" stroke="none" />
  <path d="M 42 67  C 47.6 67  52 71.4  52 77  C 52 82.6  47.6 87  42 87  C 36.4 87  32 82.6  32 77  C 32 71.4  36.4 67  42 67  Z " stroke-width="2" stroke="#797979" fill="none" />
</svg>