﻿<?xml version="1.0" encoding="utf-8"?>
<svg version="1.1" xmlns:xlink="http://www.w3.org/1999/xlink" width="22px" height="22px" xmlns="http://www.w3.org/2000/svg">
  <g transform="matrix(1 0 0 1 -38 -12 )">
    <path d="M 21.8039603960396 2.59207920792079  C 21.8039603960396 1.26336633663366  20.7148514851485 0.174257425742574  19.3861386138614 0.174257425742574  L 2.43960396039604 0.174257425742574  C 1.11089108910891 0.174257425742574  0.0217821782178217 1.26336633663366  0 2.59207920792079  L 0 19.5386138613861  C 0.0217821782178217 20.8673267326733  1.11089108910891 21.9564356435644  2.43960396039604 22  L 19.3861386138614 22  C 20.7148514851485 21.9564356435644  21.8039603960396 20.8673267326733  21.8039603960396 19.5386138613861  L 21.8039603960396 2.59207920792079  Z M 19.6257425742574 7.20990099009901  L 8.42970297029703 17.6  L 2.2 11.8277227722772  L 3.94257425742574 10.2158415841584  L 8.42970297029703 14.3544554455446  L 17.8831683168317 5.5980198019802  L 19.6257425742574 7.20990099009901  Z " fill-rule="nonzero" fill="#000000" stroke="none" transform="matrix(1 0 0 1 38 12 )" />
  </g>
</svg>