﻿<?xml version="1.0" encoding="utf-8"?>
<svg version="1.1" xmlns:xlink="http://www.w3.org/1999/xlink" width="24px" height="24px" xmlns="http://www.w3.org/2000/svg">
  <g transform="matrix(1 0 0 1 -13 -13 )">
    <path d="M 24 12  C 24 5.37096774193548  18.6290322580645 0  12 0  C 5.37096774193549 0  0 5.37096774193548  0 12  C 0 18.6290322580645  5.37096774193549 24  12 24  C 18.6290322580645 24  24 18.6290322580645  24 12  Z M 18.1935483870968 19.741935483871  L 18.1935483870968 20.4  C 16.4564516129032 21.6822580645161  14.3177419354839 22.4516129032258  12 22.4516129032258  C 9.68225806451613 22.4516129032258  7.54354838709678 21.6822580645161  5.80645161290322 20.4  L 5.80645161290322 19.741935483871  C 5.80645161290322 18.0338709677419  7.19516129032258 16.6451612903226  8.90322580645162 16.6451612903226  C 9.44032258064516 16.6451612903226  10.2338709677419 17.1967741935484  12 17.1967741935484  C 13.7709677419355 17.1967741935484  14.5548387096774 16.6451612903226  15.0967741935484 16.6451612903226  C 16.8048387096774 16.6451612903226  18.1935483870968 18.0338709677419  18.1935483870968 19.741935483871  Z M 22.4516129032258 12  C 22.4516129032258 14.7290322580645  21.391935483871 17.2064516129032  19.6741935483871 19.0693548387097  C 19.3451612903226 16.8241935483871  17.4338709677419 15.0967741935484  15.0967741935484 15.0967741935484  C 14.1048387096774 15.0967741935484  13.6258064516129 15.6483870967742  12 15.6483870967742  C 10.3741935483871 15.6483870967742  9.9 15.0967741935484  8.90322580645162 15.0967741935484  C 6.56612903225806 15.0967741935484  4.65483870967742 16.8241935483871  4.32580645161291 19.0693548387097  C 2.60806451612903 17.2064516129032  1.54838709677419 14.7290322580645  1.54838709677419 12  C 1.54838709677419 6.23709677419355  6.23709677419355 1.54838709677419  12 1.54838709677419  C 17.7629032258065 1.54838709677419  22.4516129032258 6.23709677419355  22.4516129032258 12  Z M 16.258064516129 9.67741935483871  C 16.258064516129 7.3258064516129  14.3516129032258 5.41935483870968  12 5.41935483870968  C 9.64838709677419 5.41935483870968  7.74193548387097 7.3258064516129  7.74193548387097 9.67741935483871  C 7.74193548387097 12.0290322580645  9.64838709677419 13.9354838709677  12 13.9354838709677  C 14.3516129032258 13.9354838709677  16.258064516129 12.0290322580645  16.258064516129 9.67741935483871  Z M 14.7096774193548 9.67741935483871  C 14.7096774193548 11.1725806451613  13.4951612903226 12.3870967741935  12 12.3870967741935  C 10.5048387096774 12.3870967741935  9.29032258064516 11.1725806451613  9.29032258064516 9.67741935483871  C 9.29032258064516 8.18225806451613  10.5048387096774 6.96774193548387  12 6.96774193548387  C 13.4951612903226 6.96774193548387  14.7096774193548 8.18225806451613  14.7096774193548 9.67741935483871  Z " fill-rule="nonzero" fill="#ffffff" stroke="none" fill-opacity="0.988235294117647" transform="matrix(1 0 0 1 13 13 )" />
  </g>
</svg>