﻿<?xml version="1.0" encoding="utf-8"?>
<svg version="1.1" xmlns:xlink="http://www.w3.org/1999/xlink" width="74px" height="14px" xmlns="http://www.w3.org/2000/svg">
  <g transform="matrix(1 0 0 1 -484 -289 )">
    <path d="M 0 14  L 0 0  L 29.4216867469879 0  L 49.3333333333333 0  L 74 0  L 74 14  L 14.2650602409638 14  L 0 14  Z " fill-rule="nonzero" fill="#000000" stroke="none" transform="matrix(1 0 0 1 484 289 )" />
  </g>
</svg>