﻿<?xml version="1.0" encoding="utf-8"?>
<svg version="1.1" xmlns:xlink="http://www.w3.org/1999/xlink" width="290px" height="44px" xmlns="http://www.w3.org/2000/svg">
  <g>
    <path d="M 0 1  L 289 1  L 289 43  L 0 43  L 0 1  Z " fill-rule="nonzero" fill="#ffffff" stroke="none" />
  </g>
</svg>