﻿<?xml version="1.0" encoding="utf-8"?>
<svg version="1.1" xmlns:xlink="http://www.w3.org/1999/xlink" width="20px" height="20px" preserveAspectRatio="xMinYMid meet" viewBox="281 194  20 18" xmlns="http://www.w3.org/2000/svg">
  <path d="M 108 203  L 290 203  " stroke-width="2" stroke="#0099cc" fill="none" />
  <path d="M 289 210.6  L 296 203  L 289 195.4  L 289 210.6  Z " fill-rule="nonzero" fill="#0099cc" stroke="none" />
</svg>