﻿<?xml version="1.0" encoding="utf-8"?>
<svg version="1.1" xmlns:xlink="http://www.w3.org/1999/xlink" width="20px" height="20px" preserveAspectRatio="xMinYMid meet" viewBox="746 385  20 18" xmlns="http://www.w3.org/2000/svg">
  <path d="M 726 363  L 751 363  A 5 5 0 0 1 756 368 L 756 393  " stroke-width="2" stroke="#0099cc" fill="none" />
  <path d="M 748.4 392  L 756 399  L 763.6 392  L 748.4 392  Z " fill-rule="nonzero" fill="#0099cc" stroke="none" />
</svg>