﻿<?xml version="1.0" encoding="utf-8"?>
<svg version="1.1" xmlns:xlink="http://www.w3.org/1999/xlink" width="32px" height="10px" preserveAspectRatio="xMinYMid meet" viewBox="575 359  32 8" xmlns="http://www.w3.org/2000/svg">
  <path d="M 575 363  L 596 363  " stroke-width="2" stroke="#0099cc" fill="none" />
  <path d="M 595 370.6  L 602 363  L 595 355.4  L 595 370.6  Z " fill-rule="nonzero" fill="#0099cc" stroke="none" />
</svg>