﻿<?xml version="1.0" encoding="utf-8"?>
<svg version="1.1" xmlns:xlink="http://www.w3.org/1999/xlink" width="20px" height="20px" preserveAspectRatio="xMinYMid meet" viewBox="52 138  20 18" xmlns="http://www.w3.org/2000/svg">
  <path d="M 358 160  L 358 137  A 5 5 0 0 0 353 132 L 67 132  A 5 5 0 0 0 62 137 L 62 146  " stroke-width="2" stroke="#0099cc" fill="none" />
  <path d="M 54.4 145  L 62 152  L 69.6 145  L 54.4 145  Z " fill-rule="nonzero" fill="#0099cc" stroke="none" />
</svg>