﻿<?xml version="1.0" encoding="utf-8"?>
<svg version="1.1" xmlns:xlink="http://www.w3.org/1999/xlink" width="20px" height="20px" preserveAspectRatio="xMinYMid meet" viewBox="348 241  20 18" xmlns="http://www.w3.org/2000/svg">
  <path d="M 358 245  L 358 249  " stroke-width="2" stroke="#0099cc" fill="none" />
  <path d="M 350.4 248  L 358 255  L 365.6 248  L 350.4 248  Z " fill-rule="nonzero" fill="#0099cc" stroke="none" />
</svg>