﻿<?xml version="1.0" encoding="utf-8"?>
<svg version="1.1" xmlns:xlink="http://www.w3.org/1999/xlink" width="20px" height="20px" preserveAspectRatio="xMinYMid meet" viewBox="348 592  20 18" xmlns="http://www.w3.org/2000/svg">
  <path d="M 451 573  L 363 573  A 5 5 0 0 0 358 578 L 358 600  " stroke-width="2" stroke="#0099cc" fill="none" />
  <path d="M 350.4 599  L 358 606  L 365.6 599  L 350.4 599  Z " fill-rule="nonzero" fill="#0099cc" stroke="none" />
</svg>