﻿<?xml version="1.0" encoding="utf-8"?>
<svg version="1.1" xmlns:xlink="http://www.w3.org/1999/xlink" width="20px" height="10px" preserveAspectRatio="xMinYMid meet" viewBox="595 614  20 8" xmlns="http://www.w3.org/2000/svg">
  <path d="M 568 643  L 595 643  A 5 5 0 0 0 600 638 L 600 623  A 5 5 0 0 1 605 618 L 609 618  " stroke-width="2" stroke="#0099cc" fill="none" />
  <path d="M 608 625.6  L 615 618  L 608 610.4  L 608 625.6  Z " fill-rule="nonzero" fill="#0099cc" stroke="none" />
</svg>