﻿<?xml version="1.0" encoding="utf-8"?>
<svg version="1.1" xmlns:xlink="http://www.w3.org/1999/xlink" width="36px" height="10px" preserveAspectRatio="xMinYMid meet" viewBox="420 633  36 8" xmlns="http://www.w3.org/2000/svg">
  <path d="M 420 637  L 445 637  " stroke-width="2" stroke="#0099cc" fill="none" />
  <path d="M 444 644.6  L 451 637  L 444 629.4  L 444 644.6  Z " fill-rule="nonzero" fill="#0099cc" stroke="none" />
</svg>