﻿<?xml version="1.0" encoding="utf-8"?>
<svg version="1.1" xmlns:xlink="http://www.w3.org/1999/xlink" width="18px" height="10px" preserveAspectRatio="xMinYMid meet" viewBox="270 656  18 8" xmlns="http://www.w3.org/2000/svg">
  <path d="M 270 660  L 278 660  A 5 5 0 0 0 283 655 L 283 642  A 5 5 0 0 1 288 637 L 290 637  " stroke-width="2" stroke="#0099cc" fill="none" />
  <path d="M 289 644.6  L 296 637  L 289 629.4  L 289 644.6  Z " fill-rule="nonzero" fill="#0099cc" stroke="none" />
</svg>