﻿<?xml version="1.0" encoding="utf-8"?>
<svg version="1.1" xmlns:xlink="http://www.w3.org/1999/xlink" width="20px" height="20px" preserveAspectRatio="xMinYMid meet" viewBox="281 783  20 18" xmlns="http://www.w3.org/2000/svg">
  <path d="M 270 660  L 274 660  A 5 5 0 0 1 279 665 L 279 787  A 5 5 0 0 0 284 792 L 290 792  " stroke-width="2" stroke="#0099cc" fill="none" />
  <path d="M 289 799.6  L 296 792  L 289 784.4  L 289 799.6  Z " fill-rule="nonzero" fill="#0099cc" stroke="none" />
</svg>