﻿<?xml version="1.0" encoding="utf-8"?>
<svg version="1.1" xmlns:xlink="http://www.w3.org/1999/xlink" width="15px" height="10px" preserveAspectRatio="xMinYMid meet" viewBox="270 983  15 8" xmlns="http://www.w3.org/2000/svg">
  <path d="M 270 987  L 275 987  A 5 5 0 0 0 280 982 L 280 934  A 5 5 0 0 1 285 929 L 290 929  " stroke-width="2" stroke="#0099cc" fill="none" />
  <path d="M 289 936.6  L 296 929  L 289 921.4  L 289 936.6  Z " fill-rule="nonzero" fill="#0099cc" stroke="none" />
</svg>