﻿<?xml version="1.0" encoding="utf-8"?>
<svg version="1.1" xmlns:xlink="http://www.w3.org/1999/xlink" width="20px" height="20px" preserveAspectRatio="xMinYMid meet" viewBox="281 1131  20 18" xmlns="http://www.w3.org/2000/svg">
  <path d="M 270 987  L 280 987  A 5 5 0 0 1 285 992 L 285 998  A 3 3 0 0 1 288 1001 A 3 3 0 0 1 285 1004 L 285 1070  A 3 3 0 0 1 288 1073 A 3 3 0 0 1 285 1076 L 285 1135  A 5 5 0 0 0 290 1140 L 290 1140  " stroke-width="2" stroke="#0099cc" fill="none" />
  <path d="M 289 1147.6  L 296 1140  L 289 1132.4  L 289 1147.6  Z " fill-rule="nonzero" fill="#0099cc" stroke="none" />
</svg>