﻿<?xml version="1.0" encoding="utf-8"?>
<svg version="1.1" xmlns:xlink="http://www.w3.org/1999/xlink" width="36px" height="10px" preserveAspectRatio="xMinYMid meet" viewBox="420 925  36 8" xmlns="http://www.w3.org/2000/svg">
  <path d="M 420 929  L 445 929  " stroke-width="2" stroke="#0099cc" fill="none" />
  <path d="M 444 936.6  L 451 929  L 444 921.4  L 444 936.6  Z " fill-rule="nonzero" fill="#0099cc" stroke="none" />
</svg>