﻿<?xml version="1.0" encoding="utf-8"?>
<svg version="1.1" xmlns:xlink="http://www.w3.org/1999/xlink" width="20px" height="20px" preserveAspectRatio="xMinYMid meet" viewBox="52 212  20 18" xmlns="http://www.w3.org/2000/svg">
  <path d="M 62 236  L 62 222  " stroke-width="2" stroke="#0099cc" fill="none" />
  <path d="M 69.6 223  L 62 216  L 54.4 223  L 69.6 223  Z " fill-rule="nonzero" fill="#0099cc" stroke="none" />
</svg>