﻿<?xml version="1.0" encoding="utf-8"?>
<svg version="1.1" xmlns:xlink="http://www.w3.org/1999/xlink" width="97px" height="10px" preserveAspectRatio="xMinYMid meet" viewBox="353 306  97 8" xmlns="http://www.w3.org/2000/svg">
  <path d="M 358 335  L 358 315  A 5 5 0 0 1 363 310 L 444 310  " stroke-width="2" stroke="#0099cc" fill="none" />
  <path d="M 443 317.6  L 450 310  L 443 302.4  L 443 317.6  Z " fill-rule="nonzero" fill="#0099cc" stroke="none" />
</svg>