﻿<?xml version="1.0" encoding="utf-8"?>
<svg version="1.1" xmlns:xlink="http://www.w3.org/1999/xlink" width="10px" height="15px" preserveAspectRatio="xMidYMin meet" viewBox="231 395  8 15" xmlns="http://www.w3.org/2000/svg">
  <path d="M 236 372  L 236 399.5  A 0.5 0.5 0 0 1 235.5 400 A 0.5 0.5 0 0 0 235 400.5 L 235 404  " stroke-width="2" stroke="#0099cc" fill="none" />
  <path d="M 227.4 403  L 235 410  L 242.6 403  L 227.4 403  Z " fill-rule="nonzero" fill="#0099cc" stroke="none" />
</svg>