﻿<?xml version="1.0" encoding="utf-8"?>
<svg version="1.1" xmlns:xlink="http://www.w3.org/1999/xlink" width="39px" height="10px" preserveAspectRatio="xMinYMid meet" viewBox="150 439  39 8" xmlns="http://www.w3.org/2000/svg">
  <defs>
    <mask fill="white" id="clip47">
      <path d="M 133.299560546875 441  L 176.700439453125 441  L 176.700439453125 466  L 133.299560546875 466  Z M 133.299560546875 440  L 189 440  L 189 508  L 133.299560546875 508  Z " fill-rule="evenodd" />
    </mask>
  </defs>
  <path d="M 189 443  L 160 443  A 5 5 0 0 0 155 448 L 155 492  " stroke-width="2" stroke="#0099cc" fill="none" mask="url(#clip47)" />
  <path d="M 147.4 491  L 155 498  L 162.6 491  L 147.4 491  Z " fill-rule="nonzero" fill="#0099cc" stroke="none" mask="url(#clip47)" />
</svg>