﻿<?xml version="1.0" encoding="utf-8"?>
<svg version="1.1" xmlns:xlink="http://www.w3.org/1999/xlink" width="41px" height="10px" preserveAspectRatio="xMinYMid meet" viewBox="218 539  41 8" xmlns="http://www.w3.org/2000/svg">
  <path d="M 254 543  L 224 543  " stroke-width="2" stroke="#0099cc" fill="none" />
  <path d="M 225 535.4  L 218 543  L 225 550.6  L 225 535.4  Z " fill-rule="nonzero" fill="#0099cc" stroke="none" />
</svg>