﻿<?xml version="1.0" encoding="utf-8"?>
<svg version="1.1" xmlns:xlink="http://www.w3.org/1999/xlink" width="20px" height="20px" preserveAspectRatio="xMinYMid meet" viewBox="226 717  20 18" xmlns="http://www.w3.org/2000/svg">
  <path d="M 236 708  L 236 725  " stroke-width="2" stroke="#0099cc" fill="none" />
  <path d="M 228.4 724  L 236 731  L 243.6 724  L 228.4 724  Z " fill-rule="nonzero" fill="#0099cc" stroke="none" />
</svg>