﻿<?xml version="1.0" encoding="utf-8"?>
<svg version="1.1" xmlns:xlink="http://www.w3.org/1999/xlink" width="10px" height="72px" preserveAspectRatio="xMidYMin meet" viewBox="568 698  8 72" xmlns="http://www.w3.org/2000/svg">
  <path d="M 572 698  L 572 760  A 5 5 0 0 0 577 765 L 650 765  " stroke-width="2" stroke="#0099cc" fill="none" />
  <path d="M 649 772.6  L 656 765  L 649 757.4  L 649 772.6  Z " fill-rule="nonzero" fill="#0099cc" stroke="none" />
</svg>