﻿<?xml version="1.0" encoding="utf-8"?>
<svg version="1.1" xmlns:xlink="http://www.w3.org/1999/xlink" width="10px" height="72px" preserveAspectRatio="xMidYMin meet" viewBox="1838 712  8 72" xmlns="http://www.w3.org/2000/svg">
  <path d="M 1842 712  L 1842 774  A 5 5 0 0 0 1847 779 L 1920 779  " stroke-width="2" stroke="#0099cc" fill="none" />
  <path d="M 1919 786.6  L 1926 779  L 1919 771.4  L 1919 786.6  Z " fill-rule="nonzero" fill="#0099cc" stroke="none" />
</svg>