﻿<?xml version="1.0" encoding="utf-8"?>
<svg version="1.1" xmlns:xlink="http://www.w3.org/1999/xlink" width="20px" height="20px" preserveAspectRatio="xMinYMid meet" viewBox="568 206  20 18" xmlns="http://www.w3.org/2000/svg">
  <path d="M 236 932  L 236 945  A 5 5 0 0 0 241 950 L 441 950  A 5 5 0 0 0 446 945 L 446 220  A 5 5 0 0 1 451 215 L 577 215  " stroke-width="2" stroke="#0099cc" fill="none" />
  <path d="M 576 222.6  L 583 215  L 576 207.4  L 576 222.6  Z " fill-rule="nonzero" fill="#0099cc" stroke="none" />
</svg>