﻿<?xml version="1.0" encoding="utf-8"?>
<svg version="1.1" xmlns:xlink="http://www.w3.org/1999/xlink" width="86px" height="52px" xmlns="http://www.w3.org/2000/svg">
  <defs>
    <filter x="745px" y="538px" width="86px" height="52px" filterUnits="userSpaceOnUse" id="filter64">
      <feOffset dx="5" dy="5" in="SourceAlpha" result="shadowOffsetInner" />
      <feGaussianBlur stdDeviation="2.5" in="shadowOffsetInner" result="shadowGaussian" />
      <feComposite in2="shadowGaussian" operator="atop" in="SourceAlpha" result="shadowComposite" />
      <feColorMatrix type="matrix" values="0 0 0 0 0  0 0 0 0 0  0 0 0 0 0  0 0 0 0.349019607843137 0  " in="shadowComposite" />
    </filter>
    <g id="widget65">
      <path d="M 746 539  L 820 539  L 820 579  L 746 579  L 746 539  Z " fill-rule="nonzero" fill="#ffff80" stroke="none" />
    </g>
  </defs>
  <g transform="matrix(1 0 0 1 -745 -538 )">
    <use xlink:href="#widget65" filter="url(#filter64)" />
    <use xlink:href="#widget65" />
  </g>
</svg>