﻿<?xml version="1.0" encoding="utf-8"?>
<svg version="1.1" xmlns:xlink="http://www.w3.org/1999/xlink" width="157px" height="16px" xmlns="http://www.w3.org/2000/svg">
  <g transform="matrix(1 0 0 1 0 -37 )">
    <path d="M 0 15.3766233766234  L 0 0.519480519480515  C 0 0.22857142857143  0.575666666666664 0  1.30833333333333 0  L 155.691666666667 0  C 156.424333333333 0  157 0.22857142857143  157 0.519480519480515  L 157 15.3766233766234  C 157 15.6675324675325  156.424333333333 15.8961038961039  155.691666666667 15.8961038961039  L 113.825 15.8961038961039  L 1.30833333333333 15.8961038961039  C 0.575666666666664 15.8961038961039  0 15.6675324675325  0 15.3766233766234  Z " fill-rule="nonzero" fill="#555555" stroke="none" transform="matrix(1 0 0 1 0 37 )" />
  </g>
</svg>