﻿<?xml version="1.0" encoding="utf-8"?>
<svg version="1.1" xmlns:xlink="http://www.w3.org/1999/xlink" width="16px" height="18px" xmlns="http://www.w3.org/2000/svg">
  <g transform="matrix(1 0 0 1 -14 -12 )">
    <path d="M 16 3.9375  C 16 3.005859375  15.2321428571428 2.25  14.2857142857143 2.25  L 12.5714285714286 2.25  L 12.5714285714286 0.28125  C 12.5714285714286 0.126562500000006  12.4428571428572 0  12.2857142857143 0  L 11.7142857142857 0  C 11.5571428571428 0  11.4285714285714 0.126562500000006  11.4285714285714 0.28125  L 11.4285714285714 2.25  L 4.57142857142856 2.25  L 4.57142857142856 0.28125  C 4.57142857142856 0.126562500000006  4.44285714285718 0  4.28571428571428 0  L 3.71428571428572 0  C 3.55714285714282 0  3.42857142857144 0.126562500000006  3.42857142857144 0.28125  L 3.42857142857144 2.25  L 1.71428571428572 2.25  C 0.767857142857167 2.25  0 3.005859375  0 3.9375  L 0 16.3125  C 0 17.244140625  0.767857142857167 18  1.71428571428572 18  L 14.2857142857143 18  C 15.2321428571428 18  16 17.244140625  16 16.3125  L 16 3.9375  Z M 4.95357142857142 14.248828125  L 4.95357142857142 16.875  L 1.71428571428572 16.875  C 1.39999999999998 16.875  1.14285714285717 16.621875  1.14285714285717 16.3125  L 1.14285714285717 14.248828125  L 4.95357142857142 14.248828125  Z M 4.95357142857142 10.49765625  L 4.95357142857142 13.123828125  L 1.14285714285717 13.123828125  L 1.14285714285717 10.49765625  L 4.95357142857142 10.49765625  Z M 4.95357142857142 9.376171875  L 1.14285714285717 9.376171875  L 1.14285714285717 6.75  L 4.95357142857142 6.75  L 4.95357142857142 9.376171875  Z M 9.90714285714284 16.875  L 9.90357142857141 16.875  L 6.09642857142859 16.875  L 6.09642857142859 14.248828125  L 9.90714285714284 14.248828125  L 9.90714285714284 16.875  Z M 9.90714285714284 13.123828125  L 9.90357142857141 13.123828125  L 6.09642857142859 13.123828125  L 6.09642857142859 10.49765625  L 9.90714285714284 10.49765625  L 9.90714285714284 13.123828125  Z M 9.90714285714284 9.376171875  L 6.09642857142859 9.376171875  L 6.09642857142859 6.75  L 9.90714285714284 6.75  L 9.90714285714284 9.376171875  Z M 14.8571428571428 14.248828125  L 14.8571428571428 16.3125  C 14.8571428571428 16.621875  14.6 16.875  14.2857142857143 16.875  L 11.0464285714286 16.875  L 11.0464285714286 14.248828125  L 14.8571428571428 14.248828125  Z M 14.8571428571428 10.49765625  L 14.8571428571428 13.123828125  L 11.0464285714286 13.123828125  L 11.0464285714286 10.49765625  L 14.8571428571428 10.49765625  Z M 14.8571428571428 6.75  L 14.8571428571428 9.376171875  L 11.0464285714286 9.376171875  L 11.0464285714286 6.75  L 14.8571428571428 6.75  Z M 14.8571428571428 3.9375  L 14.8571428571428 5.625  L 1.14285714285717 5.625  L 1.14285714285717 3.9375  C 1.14285714285717 3.628125  1.39999999999998 3.375  1.71428571428572 3.375  L 14.2857142857143 3.375  C 14.6 3.375  14.8571428571428 3.628125  14.8571428571428 3.9375  Z " fill-rule="nonzero" fill="#0080d7" stroke="none" transform="matrix(1 0 0 1 14 12 )" />
  </g>
</svg>