﻿<?xml version="1.0" encoding="utf-8"?>
<svg version="1.1" xmlns:xlink="http://www.w3.org/1999/xlink" width="1063px" height="127px" xmlns="http://www.w3.org/2000/svg">
  <g transform="matrix(1 0 0 1 -60 -145 )">
    <path d="M 61 146  L 1122 146  L 1122 271  L 61 271  L 61 146  Z " fill-rule="nonzero" fill="#ffffff" stroke="none" />
    <path d="M 60.5 145.5  L 1122.5 145.5  L 1122.5 271.5  L 60.5 271.5  L 60.5 145.5  Z " stroke-width="1" stroke-dasharray="3,1" stroke="#a1a1a1" fill="none" stroke-dashoffset="0.5" />
  </g>
</svg>